Insert {
	NULL s.Key e.value
		= (s.Key e.value NULL NULL);
	(s.NodeKey e.NodeValue t.Left t.Right) s.NewKey e.NewValue
		= <InsertCmp <Compare s.NodeKey s.NewKey> (s.NodeKey s.NodeValue t.Left t.Right) s.NewKey e.NewValue>;
}

InsertCmp {
    '+'(s.NodeKey e.NodeValue t.Left t.Right) s.NewKey e.NewValue
        = (s.NodeKey e.NodeValue <Insert t.Left s.NewKey e.NewValue> t.Right);
    '-'(s.NodeKey e.NodeValue t.Left t.Right) s.NewKey e.NewValue
            = (s.NodeKey e.NodeValue t.Left <Insert t.Right s.NewKey e.NewValue>);
    '0'(s.NodeKey e.NodeValue t.Left t.Right) s.NewKey e.NewValue
            = (s.NewKey e.NewValue t.Left t.Right);
}
